<?xml version="1.0" encoding="utf-8"?>
<!-- Generator: Adobe Illustrator 15.0.0, SVG Export Plug-In . SVG Version: 6.00 Build 0)  -->
<!DOCTYPE svg PUBLIC "-//W3C//DTD SVG 1.1//EN" "http://www.w3.org/Graphics/SVG/1.1/DTD/svg11.dtd">
<svg version="1.1" id="Layer_1" xmlns="http://www.w3.org/2000/svg" xmlns:xlink="http://www.w3.org/1999/xlink" x="0px" y="0px"
	 width="200px" height="200px" viewBox="0 0 200 200" enable-background="new 0 0 200 200" xml:space="preserve">
<g>
	<path fill="#FFFFFF" d="M64.939,111.117l-5.984,8.016c0.275,0.199,18.495,13.539,42.62,13.539c12.149,0,25.8-3.385,39.409-13.535
		l-5.975-8.02C100.445,136.893,66.375,112.182,64.939,111.117z"/>
	<polygon fill="#FFFFFF" points="64.415,88.212 92.33,70.092 64.41,51.978 58.975,60.368 73.965,70.092 58.971,79.823 	"/>
	<polygon fill="#FFFFFF" points="141.029,60.368 135.59,51.978 107.67,70.092 135.585,88.212 141.035,79.823 126.04,70.092 	"/>
	<path fill="#FFFFFF" d="M157.439,12.833H42.555C30.12,12.833,20,22.953,20,35.393v114.885c0,12.436,10.12,22.555,22.555,22.555
		h114.885c12.436,0,22.561-10.119,22.561-22.561V35.393C180,22.953,169.875,12.833,157.439,12.833z M170,150.271
		c0,6.926-5.635,12.561-12.561,12.561H42.555c-6.92,0-12.555-5.635-12.555-12.561V35.393c0-6.925,5.635-12.56,12.555-12.56h114.885
		c6.926,0,12.561,5.635,12.561,12.56V150.271z"/>
</g>
</svg>
